         U CALLBACK_Audio_Device_GetSetEndpointProperty
         U CALLBACK_Audio_Device_GetSetInterfaceProperty
         U CALLBACK_HIDParser_FilterHIDReportItem
         U CALLBACK_MS_Device_SCSICommandReceived
00000000 W __heap_end
00000000 a __tmp_reg__
00000000 a __tmp_reg__
00000000 a __tmp_reg__
00000000 a __tmp_reg__
00000000 a __tmp_reg__
00000000 a __tmp_reg__
00000000 a __tmp_reg__
00000000 a __tmp_reg__
00000000 a __tmp_reg__
00000000 a __tmp_reg__
00000000 a __tmp_reg__
00000000 a __tmp_reg__
00000000 a __tmp_reg__
00000000 a __tmp_reg__
00000000 a __tmp_reg__
00000000 a __tmp_reg__
00000000 a __tmp_reg__
00000000 a __tmp_reg__
00000000 a __tmp_reg__
00000000 a __tmp_reg__
00000000 a __tmp_reg__
00000000 a __tmp_reg__
00000000 a __tmp_reg__
00000000 a __tmp_reg__
00000000 a __tmp_reg__
00000000 a __tmp_reg__
00000000 a __tmp_reg__
00000000 a __tmp_reg__
00000000 a __tmp_reg__
00000000 a __tmp_reg__
00000000 a __tmp_reg__
00000000 a __tmp_reg__
00000000 a __tmp_reg__
00000000 a __tmp_reg__
00000000 a __tmp_reg__
00000000 a __tmp_reg__
00000000 a __tmp_reg__
00000000 a __tmp_reg__
00000000 a __tmp_reg__
00000000 a __tmp_reg__
00000000 W __vector_default
00000000 T __vectors
00000001 a __zero_reg__
00000001 a __zero_reg__
00000001 a __zero_reg__
00000001 a __zero_reg__
00000001 a __zero_reg__
00000001 a __zero_reg__
00000001 a __zero_reg__
00000001 a __zero_reg__
00000001 a __zero_reg__
00000001 a __zero_reg__
00000001 a __zero_reg__
00000001 a __zero_reg__
00000001 a __zero_reg__
00000001 a __zero_reg__
00000001 a __zero_reg__
00000001 a __zero_reg__
00000001 a __zero_reg__
00000001 a __zero_reg__
00000001 a __zero_reg__
00000001 a __zero_reg__
00000001 a __zero_reg__
00000001 a __zero_reg__
00000001 a __zero_reg__
00000001 a __zero_reg__
00000001 a __zero_reg__
00000001 a __zero_reg__
00000001 a __zero_reg__
00000001 a __zero_reg__
00000001 a __zero_reg__
00000001 a __zero_reg__
00000001 a __zero_reg__
00000001 a __zero_reg__
00000001 a __zero_reg__
00000001 a __zero_reg__
00000001 a __zero_reg__
00000001 a __zero_reg__
00000001 a __zero_reg__
00000001 a __zero_reg__
00000001 a __zero_reg__
00000001 a __zero_reg__
0000003d a __SP_L__
0000003d a __SP_L__
0000003d a __SP_L__
0000003d a __SP_L__
0000003d a __SP_L__
0000003d a __SP_L__
0000003d a __SP_L__
0000003d a __SP_L__
0000003d a __SP_L__
0000003d a __SP_L__
0000003d a __SP_L__
0000003d a __SP_L__
0000003d a __SP_L__
0000003d a __SP_L__
0000003d a __SP_L__
0000003d a __SP_L__
0000003d a __SP_L__
0000003d a __SP_L__
0000003d a __SP_L__
0000003d a __SP_L__
0000003d a __SP_L__
0000003d a __SP_L__
0000003d a __SP_L__
0000003d a __SP_L__
0000003d a __SP_L__
0000003d a __SP_L__
0000003d a __SP_L__
0000003d a __SP_L__
0000003d a __SP_L__
0000003d a __SP_L__
0000003d a __SP_L__
0000003d a __SP_L__
0000003d a __SP_L__
0000003d a __SP_L__
0000003d a __SP_L__
0000003d a __SP_L__
0000003d a __SP_L__
0000003d a __SP_L__
0000003d a __SP_L__
0000003d a __SP_L__
0000003e a __SP_H__
0000003e a __SP_H__
0000003e a __SP_H__
0000003e a __SP_H__
0000003e a __SP_H__
0000003e a __SP_H__
0000003e a __SP_H__
0000003e a __SP_H__
0000003e a __SP_H__
0000003e a __SP_H__
0000003e a __SP_H__
0000003e a __SP_H__
0000003e a __SP_H__
0000003e a __SP_H__
0000003e a __SP_H__
0000003e a __SP_H__
0000003e a __SP_H__
0000003e a __SP_H__
0000003e a __SP_H__
0000003e a __SP_H__
0000003e a __SP_H__
0000003e a __SP_H__
0000003e a __SP_H__
0000003e a __SP_H__
0000003e a __SP_H__
0000003e a __SP_H__
0000003e a __SP_H__
0000003e a __SP_H__
0000003e a __SP_H__
0000003e a __SP_H__
0000003e a __SP_H__
0000003e a __SP_H__
0000003e a __SP_H__
0000003e a __SP_H__
0000003e a __SP_H__
0000003e a __SP_H__
0000003e a __SP_H__
0000003e a __SP_H__
0000003e a __SP_H__
0000003e a __SP_H__
0000003f a __SREG__
0000003f a __SREG__
0000003f a __SREG__
0000003f a __SREG__
0000003f a __SREG__
0000003f a __SREG__
0000003f a __SREG__
0000003f a __SREG__
0000003f a __SREG__
0000003f a __SREG__
0000003f a __SREG__
0000003f a __SREG__
0000003f a __SREG__
0000003f a __SREG__
0000003f a __SREG__
0000003f a __SREG__
0000003f a __SREG__
0000003f a __SREG__
0000003f a __SREG__
0000003f a __SREG__
0000003f a __SREG__
0000003f a __SREG__
0000003f a __SREG__
0000003f a __SREG__
0000003f a __SREG__
0000003f a __SREG__
0000003f a __SREG__
0000003f a __SREG__
0000003f a __SREG__
0000003f a __SREG__
0000003f a __SREG__
0000003f a __SREG__
0000003f a __SREG__
0000003f a __SREG__
0000003f a __SREG__
0000003f a __SREG__
0000003f a __SREG__
0000003f a __SREG__
0000003f a __SREG__
0000003f a __SREG__
000000ce T ProductString
000000f4 T ManufacturerString
0000011a T LanguageString
0000011e T ConfigurationDescriptor
0000017d T DeviceDescriptor
0000018f T DigitizerReport
000001de T __ctors_end
000001de T __ctors_start
000001de T __dtors_end
000001de T __dtors_start
000001de W __init
000001de T __trampolines_end
000001de T __trampolines_start
000001ea T __do_copy_data
00000200 T __do_clear_bss
00000208 t .do_clear_bss_loop
0000020a t .do_clear_bss_start
00000216 T __bad_interrupt
00000216 W __vector_1
00000216 W __vector_12
00000216 W __vector_13
00000216 W __vector_14
00000216 W __vector_15
00000216 W __vector_16
00000216 W __vector_17
00000216 W __vector_18
00000216 W __vector_19
00000216 W __vector_2
00000216 W __vector_20
00000216 W __vector_21
00000216 W __vector_22
00000216 W __vector_23
00000216 W __vector_24
00000216 W __vector_25
00000216 W __vector_26
00000216 W __vector_27
00000216 W __vector_28
00000216 W __vector_29
00000216 W __vector_30
00000216 W __vector_31
00000216 W __vector_32
00000216 W __vector_33
00000216 W __vector_34
00000216 W __vector_35
00000216 W __vector_36
00000216 W __vector_37
00000216 W __vector_38
00000216 W __vector_39
00000216 W __vector_4
00000216 W __vector_40
00000216 W __vector_41
00000216 W __vector_42
00000216 W __vector_5
00000216 W __vector_6
00000216 W __vector_7
00000216 W __vector_8
00000216 W __vector_9
00000218 t LEDs_Init
0000021e t LEDs_SetAllLEDs
00000228 T putchar_printf
0000024c T SetupHardware
00000302 T execute_command
000003a4 T HandleSerial
000004ca T main
00000524 T EVENT_USB_Device_Connect
00000528 T EVENT_USB_Device_Disconnect
0000052c T EVENT_USB_Device_ConfigurationChanged
0000055c T EVENT_USB_Device_ControlRequest
0000056c T EVENT_USB_Device_StartOfFrame
00000584 T CALLBACK_HID_Device_CreateHIDReport
000005b0 T CALLBACK_HID_Device_ProcessHIDReport
000005b2 T CALLBACK_USB_GetDescriptor
00000638 T LCD_CS_Low
0000063c T LCD_CS_High
00000640 T LcdWrite
000006ae T LCD_Init
00000740 T LCD_UnInit
00000762 T BL_on
00000782 T setup_irq
00000796 T digitizer_set_config
000007b6 T digitizer_get_report
00000926 T edt_ft5x06_ts_readwrite
000009cc T edt_ft5x06_get_data
00000aff W __stack
00000b22 T __vector_3
00000b68 T edt_ft5x06_register_write
00000b94 T edt_ft5x06_ts_set_parameters
00000bfc T edt_ft5x06_register_read
00000c30 T edt_ft5x06_ts_identify
00000ccc T edt_ft5x06_ts_get_parameters
00000d08 T digitizer_init
00000da2 T TWI_Init
00000db4 T TWI_Start
00000dc4 T TWI_Write
00000dd8 T i2c_send2
00000e60 T TWI_Read
00000e7c T i2c_recv2
00000f0c T i2c_transfer
00000f5c T Endpoint_Write_Stream_LE
00000fea T Endpoint_Write_Control_Stream_LE
000010a0 T Endpoint_Read_Control_Stream_LE
00001120 T Endpoint_Write_Control_PStream_LE
000011dc T Endpoint_ConfigureEndpoint_Prv
00001246 T Endpoint_ConfigureEndpointTable
000012c0 T Endpoint_ClearStatusStage
00001302 T Endpoint_WaitUntilReady
00001362 T USB_ResetInterface
000013e2 T USB_Init
00001402 T USB_INT_DisableAllInterrupts
00001412 T USB_INT_ClearAllInterrupts
0000141c T __vector_10
000015ae T __vector_11
00001624 T USB_Device_ProcessControlRequest
000018b4 W EVENT_USB_Device_Reset
000018b4 W EVENT_USB_Device_Suspend
000018b4 W EVENT_USB_Device_WakeUp
000018b4 T USB_Event_Stub
000018b6 T USB_USBTask
000018ee T CDC_Device_ConfigureEndpoints
00001938 T CDC_Device_SendByte
00001986 T CDC_Device_Flush
000019e2 T CDC_Device_USBTask
00001a0e T CDC_Device_ReceiveByte
00001a78 T CDC_Device_Event_Stub
00001a78 W EVENT_CDC_Device_BreakSent
00001a78 W EVENT_CDC_Device_ControLineStateChanged
00001a78 W EVENT_CDC_Device_LineEncodingChanged
00001a7a T CDC_Device_ProcessControlRequest
00001bda T HID_Device_ProcessControlRequest
00001e3a T HID_Device_ConfigureEndpoints
00001e60 T HID_Device_USBTask
00001fde T _div
00001fde T __divmodhi4
00001ff4 t __divmodhi4_neg1
00001ffc t __divmodhi4_neg2
00002002 t __divmodhi4_exit
00002004 T __tablejump2__
00002008 T __tablejump__
00002010 T __udivmodhi4
00002018 t __udivmodhi4_loop
00002026 t __udivmodhi4_ep
00002038 T malloc
00002168 T free
00002286 T atoi
000022c0 T memcmp
000022da T memcpy
000022ec T memset
000022fa T strcmp
0000230c T strcpy
0000231a T strncmp
00002336 T __mulhi_const_10
00002346 T printf
00002368 T sprintf
000023a6 T vfprintf
0000272c T strnlen_P
00002742 T strnlen
00002758 T fputc
000027bc T __ultoa_invert
00002878 T __prologue_saves__
000028b0 T __epilogue_restores__
000028e6 W exit
000028e6 T _exit
000028e8 t __stop_program
000028ea A __data_load_start
000028ea T _etext
000029ac A __data_load_end
00800100 D __data_start
00800100 d mystdout
0080010e D Digitizer_HID_Interface
0080011e D VirtualSerial_CDC_Interface
00800139 d h.4417
0080013e d digitizer_config_xy
00800140 D __malloc_heap_end
00800142 D __malloc_heap_start
00800144 D __malloc_margin
008001c2 B __bss_start
008001c2 D __data_end
008001c2 D _edata
008001c2 B enable_reports
008001c3 b FromHost_Buffer_Data
00800243 b FromHost_Buffer
0080024f b PrevDigitizerHIDReportBuffer
00800257 b report_nr
00800259 b num_touches
0080025b B cmd_cnt
0080025d B cmd
008002c1 B tsdata
008002c3 B tp
008002d7 B USB_Device_ConfigurationNumber
008002d8 B USB_Device_CurrentlySelfPowered
008002d9 B USB_Device_RemoteWakeupEnabled
008002da B USB_IsInitialized
008002db B USB_DeviceState
008002dc B USB_ControlRequest
008002e4 B __brkval
008002e6 B __flp
008002e8 B __iob
008002ee B __bss_end
008002ee N _end
008002ee N __heap_start
00810000 N __eeprom_end
